Arctic Data Center Training
…
library(rfishbase)

fish <- c("Oreochromis niloticus", "Salmo trutta")
fish <- validate_names(c("Oreochromis niloticus", "Salmo trutta"))
fish <- species_list(Genus = "Labroides")
fish

## [1] "Labroides dimidiatus"    "Labroides bicolor"      
## [3] "Labroides pectoralis"    "Labroides phthirophagus"
## [5] "Labroides rubrolabiatus"

fish_common <- common_to_sci("trout")
fish_common

## # A tibble: 279 x 4
##    Species                   ComName              Language SpecCode
##    <chr>                     <chr>                <chr>       <int>
##  1 Salmo obtusirostris       Adriatic trout       English      6210
##  2 Schizothorax richardsonii Alawan snowtrout     English      8705
##  3 Schizopyge niger          Alghad snowtrout     English     24454
##  4 Salvelinus fontinalis     American brook trout English       246
##  5 Salmo trutta              Amu-Darya trout      English       238
##  6 Oncorhynchus apache       Apache Trout         English      2687
##  7 Oncorhynchus apache       Apache trout         English      2687
##  8 Plectropomus areolatus    Apricot trout        English      6082
##  9 Salmo trutta              Aral Sea Trout       English       238
## 10 Salmo trutta              Aral trout           English       238
## # ... with 269 more rows
…
